[
  {
    "id": "us-east-1",
    "name": "US-East (Virginia)",
    "endpoint": "http://dynamodb.us-east-1.amazonaws.com/",
    "group": "us"
  },
  {
    "id": "us-east-2",
    "name": "US East (Ohio)",
    "endpoint": "http://dynamodb.us-east-2.amazonaws.com/",
    "group": "us"
  },
  {
    "id": "us-west-1",
    "name": "US-West (California)",
    "endpoint": "http://dynamodb.us-west-1.amazonaws.com/",
    "group": "us"
  },
  {
    "id": "us-west-2",
    "name": "US-West (Oregon)",
    "endpoint": "http://dynamodb.us-west-2.amazonaws.com/",
    "group": "us"
  },
  {
    "id": "ca-central-1",
    "name": "Canada (Central)",
    "endpoint": "http://dynamodb.ca-central-1.amazonaws.com/",
    "group": "us"
  },
  {
    "id": "sa-east-1",
    "name": "South America (Sao Paulo)",
    "endpoint": "http://dynamodb.sa-east-1.amazonaws.com/",
    "group": "us"
  },
  {
    "id": "eu-west-1",
    "name": "Europe (Ireland)",
    "endpoint": "http://dynamodb.eu-west-1.amazonaws.com/",
    "group": "eu"
  },
  {
    "id": "eu-west-2",
    "name": "Europe (London)",
    "endpoint": "http://dynamodb.eu-west-2.amazonaws.com/",
    "group": "eu"
  },
  {
    "id": "eu-central-1",
    "name": "Europe (Frankfurt)",
    "endpoint": "http://dynamodb.eu-central-1.amazonaws.com/",
    "group": "eu"
  },
  {
    "id": "ap-south-1",
    "name": "Asia Pacific (Mumbai)",
    "endpoint": "http://dynamodb.ap-south-1.amazonaws.com/",
    "group": "as"
  },
  {
    "id": "ap-northeast-2",
    "name": "Asia Pacific (Seoul)",
    "endpoint": "http://dynamodb.ap-northeast-2.amazonaws.com/",
    "group": "as"
  },
  {
    "id": "ap-southeast-1",
    "name": "Asia Pacific (Singapore)",
    "endpoint": "http://dynamodb.ap-southeast-1.amazonaws.com/",
    "group": "as"
  },
  {
    "id": "ap-southeast-2",
    "name": "Asia Pacific (Sydney)",
    "endpoint": "http://dynamodb.ap-southeast-2.amazonaws.com/",
    "group": "as"
  },
  {
    "id": "ap-northeast-1",
    "name": "Asia Pacific (Tokyo)",
    "endpoint": "http://dynamodb.ap-northeast-1.amazonaws.com/",
    "group": "as"
  },
  {
    "id": "cn-north-1",
    "name": "China (Beijing)",
    "endpoint": "http://dynamodb.cn-north-1.amazonaws.com.cn/",
    "group": "as"
  }
]